add.vcd
$date
	Wed Feb 02 20:11:42 2022
$end
$version
	Icarus Verilog
$end
$timescale
	1ps
$end
$scope module testbench $end
$var reg 64 ! a [63:0] $end
$upscope $end
$scope module testbench $end
$var reg 64 " b [63:0] $end
$upscope $end
$scope module testbench $end
$var wire 1 # c $end
$upscope $end
$scope module testbench $end
$var wire 64 $ out [63:0] $end
$upscope $end
$enddefinitions $end
#0
$dumpvars
b11111111110 $
0#
b1111111111 "
b1111111111 !
$end
#10
b11111111101 $
b1111111110 !
#20
b11111111100 $
b1111111101 !
#30
b11111111011 $
b1111111100 !
#40
b11111111010 $
b1111111011 !
#50
b11111111001 $
b1111111010 !
#60
b11111111000 $
b1111111001 !
#70
b11111110111 $
b1111111000 !
#80
b11111110110 $
b1111110111 !
#90
b11111110101 $
b1111110110 !
#100
b11111110100 $
b1111110101 !
#110
b11111110011 $
b1111110100 !
#120
b11111110010 $
b1111110011 !
#130
b11111110001 $
b1111110010 !
#140
b11111110000 $
b1111110001 !
#150
b11111101111 $
b1111110000 !
#160
b11111101110 $
b1111101111 !
#170
b11111111100 $
b1111111110 !
b1111111110 "
#180
b11111111011 $
b1111111101 !
#190
b11111111010 $
b1111111100 !
#200
b11111111001 $
b1111111011 !
#210
b11111111000 $
b1111111010 !
#220
b11111110111 $
b1111111001 !
#230
b11111110110 $
b1111111000 !
#240
b11111110101 $
b1111110111 !
#250
b11111110100 $
b1111110110 !
#260
b11111110011 $
b1111110101 !
#270
b11111110010 $
b1111110100 !
#280
b11111110001 $
b1111110011 !
#290
b11111110000 $
b1111110010 !
#300
b11111101111 $
b1111110001 !
#310
b11111101110 $
b1111110000 !
#320
b11111101101 $
b1111101111 !
#330
b11111111011 $
b1111111110 !
b1111111101 "
#340
b11111111010 $
b1111111101 !
#350
b11111111001 $
b1111111100 !
#360
b11111111000 $
b1111111011 !
#370
b11111110111 $
b1111111010 !
#380
b11111110110 $
b1111111001 !
#390
b11111110101 $
b1111111000 !
#400
b11111110100 $
b1111110111 !
#410
b11111110011 $
b1111110110 !
#420
b11111110010 $
b1111110101 !
#430
b11111110001 $
b1111110100 !
#440
b11111110000 $
b1111110011 !
#450
b11111101111 $
b1111110010 !
#460
b11111101110 $
b1111110001 !
#470
b11111101101 $
b1111110000 !
#480
b11111101100 $
b1111101111 !
#490
b11111111010 $
b1111111110 !
b1111111100 "
#500
b11111111001 $
b1111111101 !
#510
b11111111000 $
b1111111100 !
#520
b11111110111 $
b1111111011 !
#530
b11111110110 $
b1111111010 !
#540
b11111110101 $
b1111111001 !
#550
b11111110100 $
b1111111000 !
#560
b11111110011 $
b1111110111 !
#570
b11111110010 $
b1111110110 !
#580
b11111110001 $
b1111110101 !
#590
b11111110000 $
b1111110100 !
#600
b11111101111 $
b1111110011 !
#610
b11111101110 $
b1111110010 !
#620
b11111101101 $
b1111110001 !
#630
b11111101100 $
b1111110000 !
#640
b11111101011 $
b1111101111 !
#650
b11111111001 $
b1111111110 !
b1111111011 "
#660
b11111111000 $
b1111111101 !
#670
b11111110111 $
b1111111100 !
#680
b11111110110 $
b1111111011 !
#690
b11111110101 $
b1111111010 !
#700
b11111110100 $
b1111111001 !
#710
b11111110011 $
b1111111000 !
#720
b11111110010 $
b1111110111 !
#730
b11111110001 $
b1111110110 !
#740
b11111110000 $
b1111110101 !
#750
b11111101111 $
b1111110100 !
#760
b11111101110 $
b1111110011 !
#770
b11111101101 $
b1111110010 !
#780
b11111101100 $
b1111110001 !
#790
b11111101011 $
b1111110000 !
#800
b11111101010 $
b1111101111 !
#810
b11111111000 $
b1111111110 !
b1111111010 "
#820
b11111110111 $
b1111111101 !
#830
b11111110110 $
b1111111100 !
#840
b11111110101 $
b1111111011 !
#850
b11111110100 $
b1111111010 !
#860
b11111110011 $
b1111111001 !
#870
b11111110010 $
b1111111000 !
#880
b11111110001 $
b1111110111 !
#890
b11111110000 $
b1111110110 !
#900
b11111101111 $
b1111110101 !
#910
b11111101110 $
b1111110100 !
#920
b11111101101 $
b1111110011 !
#930
b11111101100 $
b1111110010 !
#940
b11111101011 $
b1111110001 !
#950
b11111101010 $
b1111110000 !
#960
b11111101001 $
b1111101111 !
#970
b11111110111 $
b1111111110 !
b1111111001 "
#980
b11111110110 $
b1111111101 !
#990
b11111110101 $
b1111111100 !
#1000
b11111110100 $
b1111111011 !
#1010
b11111110011 $
b1111111010 !
#1020
b11111110010 $
b1111111001 !
#1030
b11111110001 $
b1111111000 !
#1040
b11111110000 $
b1111110111 !
#1050
b11111101111 $
b1111110110 !
#1060
b11111101110 $
b1111110101 !
#1070
b11111101101 $
b1111110100 !
#1080
b11111101100 $
b1111110011 !
#1090
b11111101011 $
b1111110010 !
#1100
b11111101010 $
b1111110001 !
#1110
b11111101001 $
b1111110000 !
#1120
b11111101000 $
b1111101111 !
#1130
b11111110110 $
b1111111110 !
b1111111000 "
#1140
b11111110101 $
b1111111101 !
#1150
b11111110100 $
b1111111100 !
#1160
b11111110011 $
b1111111011 !
#1170
b11111110010 $
b1111111010 !
#1180
b11111110001 $
b1111111001 !
#1190
b11111110000 $
b1111111000 !
#1200
b11111101111 $
b1111110111 !
#1210
b11111101110 $
b1111110110 !
#1220
b11111101101 $
b1111110101 !
#1230
b11111101100 $
b1111110100 !
#1240
b11111101011 $
b1111110011 !
#1250
b11111101010 $
b1111110010 !
#1260
b11111101001 $
b1111110001 !
#1270
b11111101000 $
b1111110000 !
#1280
b11111100111 $
b1111101111 !
#1290
b11111110101 $
b1111111110 !
b1111110111 "
#1300
b11111110100 $
b1111111101 !
#1310
b11111110011 $
b1111111100 !
#1320
b11111110010 $
b1111111011 !
#1330
b11111110001 $
b1111111010 !
#1340
b11111110000 $
b1111111001 !
#1350
b11111101111 $
b1111111000 !
#1360
b11111101110 $
b1111110111 !
#1370
b11111101101 $
b1111110110 !
#1380
b11111101100 $
b1111110101 !
#1390
b11111101011 $
b1111110100 !
#1400
b11111101010 $
b1111110011 !
#1410
b11111101001 $
b1111110010 !
#1420
b11111101000 $
b1111110001 !
#1430
b11111100111 $
b1111110000 !
#1440
b11111100110 $
b1111101111 !
#1450
b11111110100 $
b1111111110 !
b1111110110 "
#1460
b11111110011 $
b1111111101 !
#1470
b11111110010 $
b1111111100 !
#1480
b11111110001 $
b1111111011 !
#1490
b11111110000 $
b1111111010 !
#1500
b11111101111 $
b1111111001 !
#1510
b11111101110 $
b1111111000 !
#1520
b11111101101 $
b1111110111 !
#1530
b11111101100 $
b1111110110 !
#1540
b11111101011 $
b1111110101 !
#1550
b11111101010 $
b1111110100 !
#1560
b11111101001 $
b1111110011 !
#1570
b11111101000 $
b1111110010 !
#1580
b11111100111 $
b1111110001 !
#1590
b11111100110 $
b1111110000 !
#1600
b11111100101 $
b1111101111 !
#1610
b11111110011 $
b1111111110 !
b1111110101 "
#1620
b11111110010 $
b1111111101 !
#1630
b11111110001 $
b1111111100 !
#1640
b11111110000 $
b1111111011 !
#1650
b11111101111 $
b1111111010 !
#1660
b11111101110 $
b1111111001 !
#1670
b11111101101 $
b1111111000 !
#1680
b11111101100 $
b1111110111 !
#1690
b11111101011 $
b1111110110 !
#1700
b11111101010 $
b1111110101 !
#1710
b11111101001 $
b1111110100 !
#1720
b11111101000 $
b1111110011 !
#1730
b11111100111 $
b1111110010 !
#1740
b11111100110 $
b1111110001 !
#1750
b11111100101 $
b1111110000 !
#1760
b11111100100 $
b1111101111 !
#1770
b11111110010 $
b1111111110 !
b1111110100 "
#1780
b11111110001 $
b1111111101 !
#1790
b11111110000 $
b1111111100 !
#1800
b11111101111 $
b1111111011 !
#1810
b11111101110 $
b1111111010 !
#1820
b11111101101 $
b1111111001 !
#1830
b11111101100 $
b1111111000 !
#1840
b11111101011 $
b1111110111 !
#1850
b11111101010 $
b1111110110 !
#1860
b11111101001 $
b1111110101 !
#1870
b11111101000 $
b1111110100 !
#1880
b11111100111 $
b1111110011 !
#1890
b11111100110 $
b1111110010 !
#1900
b11111100101 $
b1111110001 !
#1910
b11111100100 $
b1111110000 !
#1920
b11111100011 $
b1111101111 !
#1930
b11111110001 $
b1111111110 !
b1111110011 "
#1940
b11111110000 $
b1111111101 !
#1950
b11111101111 $
b1111111100 !
#1960
b11111101110 $
b1111111011 !
#1970
b11111101101 $
b1111111010 !
#1980
b11111101100 $
b1111111001 !
#1990
b11111101011 $
b1111111000 !
#2000
b11111101010 $
b1111110111 !
#2010
b11111101001 $
b1111110110 !
#2020
b11111101000 $
b1111110101 !
#2030
b11111100111 $
b1111110100 !
#2040
b11111100110 $
b1111110011 !
#2050
b11111100101 $
b1111110010 !
#2060
b11111100100 $
b1111110001 !
#2070
b11111100011 $
b1111110000 !
#2080
b11111100010 $
b1111101111 !
#2090
b11111110000 $
b1111111110 !
b1111110010 "
#2100
b11111101111 $
b1111111101 !
#2110
b11111101110 $
b1111111100 !
#2120
b11111101101 $
b1111111011 !
#2130
b11111101100 $
b1111111010 !
#2140
b11111101011 $
b1111111001 !
#2150
b11111101010 $
b1111111000 !
#2160
b11111101001 $
b1111110111 !
#2170
b11111101000 $
b1111110110 !
#2180
b11111100111 $
b1111110101 !
#2190
b11111100110 $
b1111110100 !
#2200
b11111100101 $
b1111110011 !
#2210
b11111100100 $
b1111110010 !
#2220
b11111100011 $
b1111110001 !
#2230
b11111100010 $
b1111110000 !
#2240
b11111100001 $
b1111101111 !
#2250
b11111101111 $
b1111111110 !
b1111110001 "
#2260
b11111101110 $
b1111111101 !
#2270
b11111101101 $
b1111111100 !
#2280
b11111101100 $
b1111111011 !
#2290
b11111101011 $
b1111111010 !
#2300
b11111101010 $
b1111111001 !
#2310
b11111101001 $
b1111111000 !
#2320
b11111101000 $
b1111110111 !
#2330
b11111100111 $
b1111110110 !
#2340
b11111100110 $
b1111110101 !
#2350
b11111100101 $
b1111110100 !
#2360
b11111100100 $
b1111110011 !
#2370
b11111100011 $
b1111110010 !
#2380
b11111100010 $
b1111110001 !
#2390
b11111100001 $
b1111110000 !
#2400
b11111100000 $
b1111101111 !
#2410
b11111101110 $
b1111111110 !
b1111110000 "
#2420
b11111101101 $
b1111111101 !
#2430
b11111101100 $
b1111111100 !
#2440
b11111101011 $
b1111111011 !
#2450
b11111101010 $
b1111111010 !
#2460
b11111101001 $
b1111111001 !
#2470
b11111101000 $
b1111111000 !
#2480
b11111100111 $
b1111110111 !
#2490
b11111100110 $
b1111110110 !
#2500
b11111100101 $
b1111110101 !
#2510
b11111100100 $
b1111110100 !
#2520
b11111100011 $
b1111110011 !
#2530
b11111100010 $
b1111110010 !
#2540
b11111100001 $
b1111110001 !
#2550
b11111100000 $
b1111110000 !
#2560
b11111011111 $
b1111101111 !
#2570
b11111011110 $
b1111101111 "
