sub.vcd
$date
	Wed Feb 02 20:32:35 2022
$end
$version
	Icarus Verilog
$end
$timescale
	1ps
$end
$scope module testbench $end
$var reg 64 ! a [63:0] $end
$upscope $end
$scope module testbench $end
$var reg 64 " b [63:0] $end
$upscope $end
$scope module testbench $end
$var wire 1 # c $end
$upscope $end
$scope module testbench $end
$var wire 64 $ out [63:0] $end
$upscope $end
$enddefinitions $end
#0
$dumpvars
b1111111111111111111111111111111111111111111111111111111111100000 $
0#
b111111 "
b11111 !
$end
#10
b1111111111111111111111111111111111111111111111111111111111100001 $
b111110 "
#20
b1111111111111111111111111111111111111111111111111111111111100010 $
b111101 "
#30
b1111111111111111111111111111111111111111111111111111111111100011 $
b111100 "
#40
b1111111111111111111111111111111111111111111111111111111111100100 $
b111011 "
#50
b1111111111111111111111111111111111111111111111111111111111100101 $
b111010 "
#60
b1111111111111111111111111111111111111111111111111111111111100110 $
b111001 "
#70
b1111111111111111111111111111111111111111111111111111111111100111 $
b111000 "
#80
b1111111111111111111111111111111111111111111111111111111111101000 $
b110111 "
#90
b1111111111111111111111111111111111111111111111111111111111101001 $
b110110 "
#100
b1111111111111111111111111111111111111111111111111111111111101010 $
b110101 "
#110
b1111111111111111111111111111111111111111111111111111111111101011 $
b110100 "
#120
b1111111111111111111111111111111111111111111111111111111111101100 $
b110011 "
#130
b1111111111111111111111111111111111111111111111111111111111101101 $
b110010 "
#140
b1111111111111111111111111111111111111111111111111111111111101110 $
b110001 "
#150
b1111111111111111111111111111111111111111111111111111111111101111 $
b110000 "
#160
b1111111111111111111111111111111111111111111111111111111111110000 $
b101111 "
#170
b1111111111111111111111111111111111111111111111111111111111100000 $
b111110 "
b11110 !
#180
b1111111111111111111111111111111111111111111111111111111111100001 $
b111101 "
#190
b1111111111111111111111111111111111111111111111111111111111100010 $
b111100 "
#200
b1111111111111111111111111111111111111111111111111111111111100011 $
b111011 "
#210
b1111111111111111111111111111111111111111111111111111111111100100 $
b111010 "
#220
b1111111111111111111111111111111111111111111111111111111111100101 $
b111001 "
#230
b1111111111111111111111111111111111111111111111111111111111100110 $
b111000 "
#240
b1111111111111111111111111111111111111111111111111111111111100111 $
b110111 "
#250
b1111111111111111111111111111111111111111111111111111111111101000 $
b110110 "
#260
b1111111111111111111111111111111111111111111111111111111111101001 $
b110101 "
#270
b1111111111111111111111111111111111111111111111111111111111101010 $
b110100 "
#280
b1111111111111111111111111111111111111111111111111111111111101011 $
b110011 "
#290
b1111111111111111111111111111111111111111111111111111111111101100 $
b110010 "
#300
b1111111111111111111111111111111111111111111111111111111111101101 $
b110001 "
#310
b1111111111111111111111111111111111111111111111111111111111101110 $
b110000 "
#320
b1111111111111111111111111111111111111111111111111111111111101111 $
b101111 "
#330
b1111111111111111111111111111111111111111111111111111111111011111 $
b111110 "
b11101 !
#340
b1111111111111111111111111111111111111111111111111111111111100000 $
b111101 "
#350
b1111111111111111111111111111111111111111111111111111111111100001 $
b111100 "
#360
b1111111111111111111111111111111111111111111111111111111111100010 $
b111011 "
#370
b1111111111111111111111111111111111111111111111111111111111100011 $
b111010 "
#380
b1111111111111111111111111111111111111111111111111111111111100100 $
b111001 "
#390
b1111111111111111111111111111111111111111111111111111111111100101 $
b111000 "
#400
b1111111111111111111111111111111111111111111111111111111111100110 $
b110111 "
#410
b1111111111111111111111111111111111111111111111111111111111100111 $
b110110 "
#420
b1111111111111111111111111111111111111111111111111111111111101000 $
b110101 "
#430
b1111111111111111111111111111111111111111111111111111111111101001 $
b110100 "
#440
b1111111111111111111111111111111111111111111111111111111111101010 $
b110011 "
#450
b1111111111111111111111111111111111111111111111111111111111101011 $
b110010 "
#460
b1111111111111111111111111111111111111111111111111111111111101100 $
b110001 "
#470
b1111111111111111111111111111111111111111111111111111111111101101 $
b110000 "
#480
b1111111111111111111111111111111111111111111111111111111111101110 $
b101111 "
#490
b1111111111111111111111111111111111111111111111111111111111011110 $
b111110 "
b11100 !
#500
b1111111111111111111111111111111111111111111111111111111111011111 $
b111101 "
#510
b1111111111111111111111111111111111111111111111111111111111100000 $
b111100 "
#520
b1111111111111111111111111111111111111111111111111111111111100001 $
b111011 "
#530
b1111111111111111111111111111111111111111111111111111111111100010 $
b111010 "
#540
b1111111111111111111111111111111111111111111111111111111111100011 $
b111001 "
#550
b1111111111111111111111111111111111111111111111111111111111100100 $
b111000 "
#560
b1111111111111111111111111111111111111111111111111111111111100101 $
b110111 "
#570
b1111111111111111111111111111111111111111111111111111111111100110 $
b110110 "
#580
b1111111111111111111111111111111111111111111111111111111111100111 $
b110101 "
#590
b1111111111111111111111111111111111111111111111111111111111101000 $
b110100 "
#600
b1111111111111111111111111111111111111111111111111111111111101001 $
b110011 "
#610
b1111111111111111111111111111111111111111111111111111111111101010 $
b110010 "
#620
b1111111111111111111111111111111111111111111111111111111111101011 $
b110001 "
#630
b1111111111111111111111111111111111111111111111111111111111101100 $
b110000 "
#640
b1111111111111111111111111111111111111111111111111111111111101101 $
b101111 "
#650
b1111111111111111111111111111111111111111111111111111111111011101 $
b111110 "
b11011 !
#660
b1111111111111111111111111111111111111111111111111111111111011110 $
b111101 "
#670
b1111111111111111111111111111111111111111111111111111111111011111 $
b111100 "
#680
b1111111111111111111111111111111111111111111111111111111111100000 $
b111011 "
#690
b1111111111111111111111111111111111111111111111111111111111100001 $
b111010 "
#700
b1111111111111111111111111111111111111111111111111111111111100010 $
b111001 "
#710
b1111111111111111111111111111111111111111111111111111111111100011 $
b111000 "
#720
b1111111111111111111111111111111111111111111111111111111111100100 $
b110111 "
#730
b1111111111111111111111111111111111111111111111111111111111100101 $
b110110 "
#740
b1111111111111111111111111111111111111111111111111111111111100110 $
b110101 "
#750
b1111111111111111111111111111111111111111111111111111111111100111 $
b110100 "
#760
b1111111111111111111111111111111111111111111111111111111111101000 $
b110011 "
#770
b1111111111111111111111111111111111111111111111111111111111101001 $
b110010 "
#780
b1111111111111111111111111111111111111111111111111111111111101010 $
b110001 "
#790
b1111111111111111111111111111111111111111111111111111111111101011 $
b110000 "
#800
b1111111111111111111111111111111111111111111111111111111111101100 $
b101111 "
#810
b1111111111111111111111111111111111111111111111111111111111011100 $
b111110 "
b11010 !
#820
b1111111111111111111111111111111111111111111111111111111111011101 $
b111101 "
#830
b1111111111111111111111111111111111111111111111111111111111011110 $
b111100 "
#840
b1111111111111111111111111111111111111111111111111111111111011111 $
b111011 "
#850
b1111111111111111111111111111111111111111111111111111111111100000 $
b111010 "
#860
b1111111111111111111111111111111111111111111111111111111111100001 $
b111001 "
#870
b1111111111111111111111111111111111111111111111111111111111100010 $
b111000 "
#880
b1111111111111111111111111111111111111111111111111111111111100011 $
b110111 "
#890
b1111111111111111111111111111111111111111111111111111111111100100 $
b110110 "
#900
b1111111111111111111111111111111111111111111111111111111111100101 $
b110101 "
#910
b1111111111111111111111111111111111111111111111111111111111100110 $
b110100 "
#920
b1111111111111111111111111111111111111111111111111111111111100111 $
b110011 "
#930
b1111111111111111111111111111111111111111111111111111111111101000 $
b110010 "
#940
b1111111111111111111111111111111111111111111111111111111111101001 $
b110001 "
#950
b1111111111111111111111111111111111111111111111111111111111101010 $
b110000 "
#960
b1111111111111111111111111111111111111111111111111111111111101011 $
b101111 "
#970
b1111111111111111111111111111111111111111111111111111111111011011 $
b111110 "
b11001 !
#980
b1111111111111111111111111111111111111111111111111111111111011100 $
b111101 "
#990
b1111111111111111111111111111111111111111111111111111111111011101 $
b111100 "
#1000
b1111111111111111111111111111111111111111111111111111111111011110 $
b111011 "
#1010
b1111111111111111111111111111111111111111111111111111111111011111 $
b111010 "
#1020
b1111111111111111111111111111111111111111111111111111111111100000 $
b111001 "
#1030
b1111111111111111111111111111111111111111111111111111111111100001 $
b111000 "
#1040
b1111111111111111111111111111111111111111111111111111111111100010 $
b110111 "
#1050
b1111111111111111111111111111111111111111111111111111111111100011 $
b110110 "
#1060
b1111111111111111111111111111111111111111111111111111111111100100 $
b110101 "
#1070
b1111111111111111111111111111111111111111111111111111111111100101 $
b110100 "
#1080
b1111111111111111111111111111111111111111111111111111111111100110 $
b110011 "
#1090
b1111111111111111111111111111111111111111111111111111111111100111 $
b110010 "
#1100
b1111111111111111111111111111111111111111111111111111111111101000 $
b110001 "
#1110
b1111111111111111111111111111111111111111111111111111111111101001 $
b110000 "
#1120
b1111111111111111111111111111111111111111111111111111111111101010 $
b101111 "
#1130
b1111111111111111111111111111111111111111111111111111111111011010 $
b111110 "
b11000 !
#1140
b1111111111111111111111111111111111111111111111111111111111011011 $
b111101 "
#1150
b1111111111111111111111111111111111111111111111111111111111011100 $
b111100 "
#1160
b1111111111111111111111111111111111111111111111111111111111011101 $
b111011 "
#1170
b1111111111111111111111111111111111111111111111111111111111011110 $
b111010 "
#1180
b1111111111111111111111111111111111111111111111111111111111011111 $
b111001 "
#1190
b1111111111111111111111111111111111111111111111111111111111100000 $
b111000 "
#1200
b1111111111111111111111111111111111111111111111111111111111100001 $
b110111 "
#1210
b1111111111111111111111111111111111111111111111111111111111100010 $
b110110 "
#1220
b1111111111111111111111111111111111111111111111111111111111100011 $
b110101 "
#1230
b1111111111111111111111111111111111111111111111111111111111100100 $
b110100 "
#1240
b1111111111111111111111111111111111111111111111111111111111100101 $
b110011 "
#1250
b1111111111111111111111111111111111111111111111111111111111100110 $
b110010 "
#1260
b1111111111111111111111111111111111111111111111111111111111100111 $
b110001 "
#1270
b1111111111111111111111111111111111111111111111111111111111101000 $
b110000 "
#1280
b1111111111111111111111111111111111111111111111111111111111101001 $
b101111 "
#1290
b1111111111111111111111111111111111111111111111111111111111011001 $
b111110 "
b10111 !
#1300
b1111111111111111111111111111111111111111111111111111111111011010 $
b111101 "
#1310
b1111111111111111111111111111111111111111111111111111111111011011 $
b111100 "
#1320
b1111111111111111111111111111111111111111111111111111111111011100 $
b111011 "
#1330
b1111111111111111111111111111111111111111111111111111111111011101 $
b111010 "
#1340
b1111111111111111111111111111111111111111111111111111111111011110 $
b111001 "
#1350
b1111111111111111111111111111111111111111111111111111111111011111 $
b111000 "
#1360
b1111111111111111111111111111111111111111111111111111111111100000 $
b110111 "
#1370
b1111111111111111111111111111111111111111111111111111111111100001 $
b110110 "
#1380
b1111111111111111111111111111111111111111111111111111111111100010 $
b110101 "
#1390
b1111111111111111111111111111111111111111111111111111111111100011 $
b110100 "
#1400
b1111111111111111111111111111111111111111111111111111111111100100 $
b110011 "
#1410
b1111111111111111111111111111111111111111111111111111111111100101 $
b110010 "
#1420
b1111111111111111111111111111111111111111111111111111111111100110 $
b110001 "
#1430
b1111111111111111111111111111111111111111111111111111111111100111 $
b110000 "
#1440
b1111111111111111111111111111111111111111111111111111111111101000 $
b101111 "
#1450
b1111111111111111111111111111111111111111111111111111111111011000 $
b111110 "
b10110 !
#1460
b1111111111111111111111111111111111111111111111111111111111011001 $
b111101 "
#1470
b1111111111111111111111111111111111111111111111111111111111011010 $
b111100 "
#1480
b1111111111111111111111111111111111111111111111111111111111011011 $
b111011 "
#1490
b1111111111111111111111111111111111111111111111111111111111011100 $
b111010 "
#1500
b1111111111111111111111111111111111111111111111111111111111011101 $
b111001 "
#1510
b1111111111111111111111111111111111111111111111111111111111011110 $
b111000 "
#1520
b1111111111111111111111111111111111111111111111111111111111011111 $
b110111 "
#1530
b1111111111111111111111111111111111111111111111111111111111100000 $
b110110 "
#1540
b1111111111111111111111111111111111111111111111111111111111100001 $
b110101 "
#1550
b1111111111111111111111111111111111111111111111111111111111100010 $
b110100 "
#1560
b1111111111111111111111111111111111111111111111111111111111100011 $
b110011 "
#1570
b1111111111111111111111111111111111111111111111111111111111100100 $
b110010 "
#1580
b1111111111111111111111111111111111111111111111111111111111100101 $
b110001 "
#1590
b1111111111111111111111111111111111111111111111111111111111100110 $
b110000 "
#1600
b1111111111111111111111111111111111111111111111111111111111100111 $
b101111 "
#1610
b1111111111111111111111111111111111111111111111111111111111010111 $
b111110 "
b10101 !
#1620
b1111111111111111111111111111111111111111111111111111111111011000 $
b111101 "
#1630
b1111111111111111111111111111111111111111111111111111111111011001 $
b111100 "
#1640
b1111111111111111111111111111111111111111111111111111111111011010 $
b111011 "
#1650
b1111111111111111111111111111111111111111111111111111111111011011 $
b111010 "
#1660
b1111111111111111111111111111111111111111111111111111111111011100 $
b111001 "
#1670
b1111111111111111111111111111111111111111111111111111111111011101 $
b111000 "
#1680
b1111111111111111111111111111111111111111111111111111111111011110 $
b110111 "
#1690
b1111111111111111111111111111111111111111111111111111111111011111 $
b110110 "
#1700
b1111111111111111111111111111111111111111111111111111111111100000 $
b110101 "
#1710
b1111111111111111111111111111111111111111111111111111111111100001 $
b110100 "
#1720
b1111111111111111111111111111111111111111111111111111111111100010 $
b110011 "
#1730
b1111111111111111111111111111111111111111111111111111111111100011 $
b110010 "
#1740
b1111111111111111111111111111111111111111111111111111111111100100 $
b110001 "
#1750
b1111111111111111111111111111111111111111111111111111111111100101 $
b110000 "
#1760
b1111111111111111111111111111111111111111111111111111111111100110 $
b101111 "
#1770
b1111111111111111111111111111111111111111111111111111111111010110 $
b111110 "
b10100 !
#1780
b1111111111111111111111111111111111111111111111111111111111010111 $
b111101 "
#1790
b1111111111111111111111111111111111111111111111111111111111011000 $
b111100 "
#1800
b1111111111111111111111111111111111111111111111111111111111011001 $
b111011 "
#1810
b1111111111111111111111111111111111111111111111111111111111011010 $
b111010 "
#1820
b1111111111111111111111111111111111111111111111111111111111011011 $
b111001 "
#1830
b1111111111111111111111111111111111111111111111111111111111011100 $
b111000 "
#1840
b1111111111111111111111111111111111111111111111111111111111011101 $
b110111 "
#1850
b1111111111111111111111111111111111111111111111111111111111011110 $
b110110 "
#1860
b1111111111111111111111111111111111111111111111111111111111011111 $
b110101 "
#1870
b1111111111111111111111111111111111111111111111111111111111100000 $
b110100 "
#1880
b1111111111111111111111111111111111111111111111111111111111100001 $
b110011 "
#1890
b1111111111111111111111111111111111111111111111111111111111100010 $
b110010 "
#1900
b1111111111111111111111111111111111111111111111111111111111100011 $
b110001 "
#1910
b1111111111111111111111111111111111111111111111111111111111100100 $
b110000 "
#1920
b1111111111111111111111111111111111111111111111111111111111100101 $
b101111 "
#1930
b1111111111111111111111111111111111111111111111111111111111010101 $
b111110 "
b10011 !
#1940
b1111111111111111111111111111111111111111111111111111111111010110 $
b111101 "
#1950
b1111111111111111111111111111111111111111111111111111111111010111 $
b111100 "
#1960
b1111111111111111111111111111111111111111111111111111111111011000 $
b111011 "
#1970
b1111111111111111111111111111111111111111111111111111111111011001 $
b111010 "
#1980
b1111111111111111111111111111111111111111111111111111111111011010 $
b111001 "
#1990
b1111111111111111111111111111111111111111111111111111111111011011 $
b111000 "
#2000
b1111111111111111111111111111111111111111111111111111111111011100 $
b110111 "
#2010
b1111111111111111111111111111111111111111111111111111111111011101 $
b110110 "
#2020
b1111111111111111111111111111111111111111111111111111111111011110 $
b110101 "
#2030
b1111111111111111111111111111111111111111111111111111111111011111 $
b110100 "
#2040
b1111111111111111111111111111111111111111111111111111111111100000 $
b110011 "
#2050
b1111111111111111111111111111111111111111111111111111111111100001 $
b110010 "
#2060
b1111111111111111111111111111111111111111111111111111111111100010 $
b110001 "
#2070
b1111111111111111111111111111111111111111111111111111111111100011 $
b110000 "
#2080
b1111111111111111111111111111111111111111111111111111111111100100 $
b101111 "
#2090
b1111111111111111111111111111111111111111111111111111111111010100 $
b111110 "
b10010 !
#2100
b1111111111111111111111111111111111111111111111111111111111010101 $
b111101 "
#2110
b1111111111111111111111111111111111111111111111111111111111010110 $
b111100 "
#2120
b1111111111111111111111111111111111111111111111111111111111010111 $
b111011 "
#2130
b1111111111111111111111111111111111111111111111111111111111011000 $
b111010 "
#2140
b1111111111111111111111111111111111111111111111111111111111011001 $
b111001 "
#2150
b1111111111111111111111111111111111111111111111111111111111011010 $
b111000 "
#2160
b1111111111111111111111111111111111111111111111111111111111011011 $
b110111 "
#2170
b1111111111111111111111111111111111111111111111111111111111011100 $
b110110 "
#2180
b1111111111111111111111111111111111111111111111111111111111011101 $
b110101 "
#2190
b1111111111111111111111111111111111111111111111111111111111011110 $
b110100 "
#2200
b1111111111111111111111111111111111111111111111111111111111011111 $
b110011 "
#2210
b1111111111111111111111111111111111111111111111111111111111100000 $
b110010 "
#2220
b1111111111111111111111111111111111111111111111111111111111100001 $
b110001 "
#2230
b1111111111111111111111111111111111111111111111111111111111100010 $
b110000 "
#2240
b1111111111111111111111111111111111111111111111111111111111100011 $
b101111 "
#2250
b1111111111111111111111111111111111111111111111111111111111010011 $
b111110 "
b10001 !
#2260
b1111111111111111111111111111111111111111111111111111111111010100 $
b111101 "
#2270
b1111111111111111111111111111111111111111111111111111111111010101 $
b111100 "
#2280
b1111111111111111111111111111111111111111111111111111111111010110 $
b111011 "
#2290
b1111111111111111111111111111111111111111111111111111111111010111 $
b111010 "
#2300
b1111111111111111111111111111111111111111111111111111111111011000 $
b111001 "
#2310
b1111111111111111111111111111111111111111111111111111111111011001 $
b111000 "
#2320
b1111111111111111111111111111111111111111111111111111111111011010 $
b110111 "
#2330
b1111111111111111111111111111111111111111111111111111111111011011 $
b110110 "
#2340
b1111111111111111111111111111111111111111111111111111111111011100 $
b110101 "
#2350
b1111111111111111111111111111111111111111111111111111111111011101 $
b110100 "
#2360
b1111111111111111111111111111111111111111111111111111111111011110 $
b110011 "
#2370
b1111111111111111111111111111111111111111111111111111111111011111 $
b110010 "
#2380
b1111111111111111111111111111111111111111111111111111111111100000 $
b110001 "
#2390
b1111111111111111111111111111111111111111111111111111111111100001 $
b110000 "
#2400
b1111111111111111111111111111111111111111111111111111111111100010 $
b101111 "
#2410
b1111111111111111111111111111111111111111111111111111111111010010 $
b111110 "
b10000 !
#2420
b1111111111111111111111111111111111111111111111111111111111010011 $
b111101 "
#2430
b1111111111111111111111111111111111111111111111111111111111010100 $
b111100 "
#2440
b1111111111111111111111111111111111111111111111111111111111010101 $
b111011 "
#2450
b1111111111111111111111111111111111111111111111111111111111010110 $
b111010 "
#2460
b1111111111111111111111111111111111111111111111111111111111010111 $
b111001 "
#2470
b1111111111111111111111111111111111111111111111111111111111011000 $
b111000 "
#2480
b1111111111111111111111111111111111111111111111111111111111011001 $
b110111 "
#2490
b1111111111111111111111111111111111111111111111111111111111011010 $
b110110 "
#2500
b1111111111111111111111111111111111111111111111111111111111011011 $
b110101 "
#2510
b1111111111111111111111111111111111111111111111111111111111011100 $
b110100 "
#2520
b1111111111111111111111111111111111111111111111111111111111011101 $
b110011 "
#2530
b1111111111111111111111111111111111111111111111111111111111011110 $
b110010 "
#2540
b1111111111111111111111111111111111111111111111111111111111011111 $
b110001 "
#2550
b1111111111111111111111111111111111111111111111111111111111100000 $
b110000 "
#2560
b1111111111111111111111111111111111111111111111111111111111100001 $
b101111 "
#2570
b1111111111111111111111111111111111111111111111111111111111100000 $
b1111 !
