ipa_proj_pipe/alu.vcd
$date
	Sun Feb 20 13:45:19 2022
$end
$version
	Icarus Verilog
$end
$timescale
	1ps
$end
$scope module testbench $end
$var reg 2 ! control [1:0] $end
$upscope $end
$scope module testbench $end
$var reg 64 " a [63:0] $end
$upscope $end
$scope module testbench $end
$var reg 64 # b [63:0] $end
$upscope $end
$scope module testbench $end
$var wire 1 $ c $end
$upscope $end
$scope module testbench $end
$var wire 64 % out [63:0] $end
$upscope $end
$enddefinitions $end
#0
$dumpvars
b1111110 %
0$
b111111 #
b111111 "
b0 !
$end
#10
b1111101 %
b111110 "
#20
b1111100 %
b111101 "
#30
b1111011 %
b111100 "
#40
b1111010 %
b111011 "
#50
b1111001 %
b111010 "
#60
b1111000 %
b111001 "
#70
b1110111 %
b111000 "
#80
b1110110 %
b110111 "
#90
b1111100 %
b111110 "
b111110 #
#100
b1111011 %
b111101 "
#110
b1111010 %
b111100 "
#120
b1111001 %
b111011 "
#130
b1111000 %
b111010 "
#140
b1110111 %
b111001 "
#150
b1110110 %
b111000 "
#160
b1110101 %
b110111 "
#170
b1111011 %
b111110 "
b111101 #
#180
b1111010 %
b111101 "
#190
b1111001 %
b111100 "
#200
b1111000 %
b111011 "
#210
b1110111 %
b111010 "
#220
b1110110 %
b111001 "
#230
b1110101 %
b111000 "
#240
b1110100 %
b110111 "
#250
b1111010 %
b111110 "
b111100 #
#260
b1111001 %
b111101 "
#270
b1111000 %
b111100 "
#280
b1110111 %
b111011 "
#290
b1110110 %
b111010 "
#300
b1110101 %
b111001 "
#310
b1110100 %
b111000 "
#320
b1110011 %
b110111 "
#330
b1111001 %
b111110 "
b111011 #
#340
b1111000 %
b111101 "
#350
b1110111 %
b111100 "
#360
b1110110 %
b111011 "
#370
b1110101 %
b111010 "
#380
b1110100 %
b111001 "
#390
b1110011 %
b111000 "
#400
b1110010 %
b110111 "
#410
b1111000 %
b111110 "
b111010 #
#420
b1110111 %
b111101 "
#430
b1110110 %
b111100 "
#440
b1110101 %
b111011 "
#450
b1110100 %
b111010 "
#460
b1110011 %
b111001 "
#470
b1110010 %
b111000 "
#480
b1110001 %
b110111 "
#490
b1110111 %
b111110 "
b111001 #
#500
b1110110 %
b111101 "
#510
b1110101 %
b111100 "
#520
b1110100 %
b111011 "
#530
b1110011 %
b111010 "
#540
b1110010 %
b111001 "
#550
b1110001 %
b111000 "
#560
b1110000 %
b110111 "
#570
b1110110 %
b111110 "
b111000 #
#580
b1110101 %
b111101 "
#590
b1110100 %
b111100 "
#600
b1110011 %
b111011 "
#610
b1110010 %
b111010 "
#620
b1110001 %
b111001 "
#630
b1110000 %
b111000 "
#640
b1101111 %
b110111 "
#650
0$
b1111111111111111111111111111111111111111111111111111111111111111 %
b111110 "
b1 !
b111111 #
#660
b1111111111111111111111111111111111111111111111111111111111111110 %
b111101 "
#670
b1111111111111111111111111111111111111111111111111111111111111101 %
b111100 "
#680
b1111111111111111111111111111111111111111111111111111111111111100 %
b111011 "
#690
b1111111111111111111111111111111111111111111111111111111111111011 %
b111010 "
#700
b1111111111111111111111111111111111111111111111111111111111111010 %
b111001 "
#710
b1111111111111111111111111111111111111111111111111111111111111001 %
b111000 "
#720
b1111111111111111111111111111111111111111111111111111111111111000 %
b110111 "
#730
0$
b0 %
b111110 "
b111110 #
#740
0$
b1111111111111111111111111111111111111111111111111111111111111111 %
b111101 "
#750
b1111111111111111111111111111111111111111111111111111111111111110 %
b111100 "
#760
b1111111111111111111111111111111111111111111111111111111111111101 %
b111011 "
#770
b1111111111111111111111111111111111111111111111111111111111111100 %
b111010 "
#780
b1111111111111111111111111111111111111111111111111111111111111011 %
b111001 "
#790
b1111111111111111111111111111111111111111111111111111111111111010 %
b111000 "
#800
b1111111111111111111111111111111111111111111111111111111111111001 %
b110111 "
#810
0$
b1 %
b111110 "
b111101 #
#820
b0 %
b111101 "
#830
0$
b1111111111111111111111111111111111111111111111111111111111111111 %
b111100 "
#840
b1111111111111111111111111111111111111111111111111111111111111110 %
b111011 "
#850
b1111111111111111111111111111111111111111111111111111111111111101 %
b111010 "
#860
b1111111111111111111111111111111111111111111111111111111111111100 %
b111001 "
#870
b1111111111111111111111111111111111111111111111111111111111111011 %
b111000 "
#880
b1111111111111111111111111111111111111111111111111111111111111010 %
b110111 "
#890
0$
b10 %
b111110 "
b111100 #
#900
b1 %
b111101 "
#910
b0 %
b111100 "
#920
0$
b1111111111111111111111111111111111111111111111111111111111111111 %
b111011 "
#930
b1111111111111111111111111111111111111111111111111111111111111110 %
b111010 "
#940
b1111111111111111111111111111111111111111111111111111111111111101 %
b111001 "
#950
b1111111111111111111111111111111111111111111111111111111111111100 %
b111000 "
#960
b1111111111111111111111111111111111111111111111111111111111111011 %
b110111 "
#970
0$
b11 %
b111110 "
b111011 #
#980
b10 %
b111101 "
#990
b1 %
b111100 "
#1000
b0 %
b111011 "
#1010
0$
b1111111111111111111111111111111111111111111111111111111111111111 %
b111010 "
#1020
b1111111111111111111111111111111111111111111111111111111111111110 %
b111001 "
#1030
b1111111111111111111111111111111111111111111111111111111111111101 %
b111000 "
#1040
b1111111111111111111111111111111111111111111111111111111111111100 %
b110111 "
#1050
0$
b100 %
b111110 "
b111010 #
#1060
b11 %
b111101 "
#1070
b10 %
b111100 "
#1080
b1 %
b111011 "
#1090
b0 %
b111010 "
#1100
0$
b1111111111111111111111111111111111111111111111111111111111111111 %
b111001 "
#1110
b1111111111111111111111111111111111111111111111111111111111111110 %
b111000 "
#1120
b1111111111111111111111111111111111111111111111111111111111111101 %
b110111 "
#1130
0$
b101 %
b111110 "
b111001 #
#1140
b100 %
b111101 "
#1150
b11 %
b111100 "
#1160
b10 %
b111011 "
#1170
b1 %
b111010 "
#1180
b0 %
b111001 "
#1190
0$
b1111111111111111111111111111111111111111111111111111111111111111 %
b111000 "
#1200
b1111111111111111111111111111111111111111111111111111111111111110 %
b110111 "
#1210
0$
b110 %
b111110 "
b111000 #
#1220
b101 %
b111101 "
#1230
b100 %
b111100 "
#1240
b11 %
b111011 "
#1250
b10 %
b111010 "
#1260
b1 %
b111001 "
#1270
b0 %
b111000 "
#1280
0$
b1111111111111111111111111111111111111111111111111111111111111111 %
b110111 "
#1290
b111110 %
b111110 "
b10 !
b111111 #
#1300
b111101 %
b111101 "
#1310
b111100 %
b111100 "
#1320
b111011 %
b111011 "
#1330
b111010 %
b111010 "
#1340
b111001 %
b111001 "
#1350
b111000 %
b111000 "
#1360
b110111 %
b110111 "
#1370
b111110 %
b111110 "
b111110 #
#1380
b111100 %
b111101 "
#1390
b111100 "
#1400
b111010 %
b111011 "
#1410
b111010 "
#1420
b111000 %
b111001 "
#1430
b111000 "
#1440
b110110 %
b110111 "
#1450
b111100 %
b111110 "
b111101 #
#1460
b111101 %
b111101 "
#1470
b111100 %
b111100 "
#1480
b111001 %
b111011 "
#1490
b111000 %
b111010 "
#1500
b111001 %
b111001 "
#1510
b111000 %
b111000 "
#1520
b110101 %
b110111 "
#1530
b111100 %
b111110 "
b111100 #
#1540
b111101 "
#1550
b111100 "
#1560
b111000 %
b111011 "
#1570
b111010 "
#1580
b111001 "
#1590
b111000 "
#1600
b110100 %
b110111 "
#1610
b111010 %
b111110 "
b111011 #
#1620
b111001 %
b111101 "
#1630
b111000 %
b111100 "
#1640
b111011 %
b111011 "
#1650
b111010 %
b111010 "
#1660
b111001 %
b111001 "
#1670
b111000 %
b111000 "
#1680
b110011 %
b110111 "
#1690
b111010 %
b111110 "
b111010 #
#1700
b111000 %
b111101 "
#1710
b111100 "
#1720
b111010 %
b111011 "
#1730
b111010 "
#1740
b111000 %
b111001 "
#1750
b111000 "
#1760
b110010 %
b110111 "
#1770
b111000 %
b111110 "
b111001 #
#1780
b111001 %
b111101 "
#1790
b111000 %
b111100 "
#1800
b111001 %
b111011 "
#1810
b111000 %
b111010 "
#1820
b111001 %
b111001 "
#1830
b111000 %
b111000 "
#1840
b110001 %
b110111 "
#1850
b111000 %
b111110 "
b111000 #
#1860
b111101 "
#1870
b111100 "
#1880
b111011 "
#1890
b111010 "
#1900
b111001 "
#1910
b111000 "
#1920
b110000 %
b110111 "
#1930
b1 %
b111110 "
b11 !
b111111 #
#1940
b10 %
b111101 "
#1950
b11 %
b111100 "
#1960
b100 %
b111011 "
#1970
b101 %
b111010 "
#1980
b110 %
b111001 "
#1990
b111 %
b111000 "
#2000
b1000 %
b110111 "
#2010
b0 %
b111110 "
b111110 #
#2020
b11 %
b111101 "
#2030
b10 %
b111100 "
#2040
b101 %
b111011 "
#2050
b100 %
b111010 "
#2060
b111 %
b111001 "
#2070
b110 %
b111000 "
#2080
b1001 %
b110111 "
#2090
b11 %
b111110 "
b111101 #
#2100
b0 %
b111101 "
#2110
b1 %
b111100 "
#2120
b110 %
b111011 "
#2130
b111 %
b111010 "
#2140
b100 %
b111001 "
#2150
b101 %
b111000 "
#2160
b1010 %
b110111 "
#2170
b10 %
b111110 "
b111100 #
#2180
b1 %
b111101 "
#2190
b0 %
b111100 "
#2200
b111 %
b111011 "
#2210
b110 %
b111010 "
#2220
b101 %
b111001 "
#2230
b100 %
b111000 "
#2240
b1011 %
b110111 "
#2250
b101 %
b111110 "
b111011 #
#2260
b110 %
b111101 "
#2270
b111 %
b111100 "
#2280
b0 %
b111011 "
#2290
b1 %
b111010 "
#2300
b10 %
b111001 "
#2310
b11 %
b111000 "
#2320
b1100 %
b110111 "
#2330
b100 %
b111110 "
b111010 #
#2340
b111 %
b111101 "
#2350
b110 %
b111100 "
#2360
b1 %
b111011 "
#2370
b0 %
b111010 "
#2380
b11 %
b111001 "
#2390
b10 %
b111000 "
#2400
b1101 %
b110111 "
#2410
b111 %
b111110 "
b111001 #
#2420
b100 %
b111101 "
#2430
b101 %
b111100 "
#2440
b10 %
b111011 "
#2450
b11 %
b111010 "
#2460
b0 %
b111001 "
#2470
b1 %
b111000 "
#2480
b1110 %
b110111 "
#2490
b110 %
b111110 "
b111000 #
#2500
b101 %
b111101 "
#2510
b100 %
b111100 "
#2520
b11 %
b111011 "
#2530
b10 %
b111010 "
#2540
b1 %
b111001 "
#2550
b0 %
b111000 "
#2560
b1111 %
b110111 "
#2570
b0 %
b110111 #
