ipa_proj_pipe/Seq.vcd
$date
	Tue Feb 22 21:00:23 2022
$end
$version
	Icarus Verilog
$end
$timescale
	1s
$end
$scope module seq $end
$var wire 64 ! PC [63:0] $end
$upscope $end
$scope module seq $end
$var wire 4 " icode [3:0] $end
$upscope $end
$scope module seq $end
$var wire 4 # ifun [3:0] $end
$upscope $end
$scope module seq $end
$var wire 4 $ rA [3:0] $end
$upscope $end
$scope module seq $end
$var wire 4 % rB [3:0] $end
$upscope $end
$scope module seq $end
$var wire 64 & valC [63:0] $end
$upscope $end
$scope module seq $end
$var wire 64 ' valP [63:0] $end
$upscope $end
$scope module seq $end
$var wire 64 ( valA [63:0] $end
$upscope $end
$scope module seq $end
$var wire 64 ) valB [63:0] $end
$upscope $end
$scope module seq $end
$var wire 64 * valM [63:0] $end
$upscope $end
$scope module seq $end
$var wire 64 + valE [63:0] $end
$upscope $end
$scope module seq $end
$var wire 1 , instr_valid $end
$upscope $end
$scope module seq $end
$var wire 1 - Cnd $end
$upscope $end
$scope module seq $end
$var reg 1 . clock $end
$upscope $end
$scope module seq $end
$var reg 64 / PC_in [63:0] $end
$upscope $end
$scope module seq $end
$var wire 2 0 stat [1:0] $end
$upscope $end
$scope module seq $end
$var wire 1 1 imem_error $end
$upscope $end
$enddefinitions $end
#0
$dumpvars
01
b0 0
b0 /
1.
0-
1,
b0 +
bx *
bx )
bx (
b1010000 '
b0 &
b0 %
b1111 $
b0 #
b11 "
b1010000 !
$end
#10
0.
#20
b1 +
b10100000 !
b1 &
b1 %
b10100000 '
b1010000 /
1.
#30
0.
#40
b1 +
b0 )
b1 (
b10110000 !
b11111001000110000 &
b0 %
b1 $
b110 "
b10110000 '
b10100000 /
1.
#50
0.
#60
b1 &
b1 +
b100000000 !
b10 %
b1111 $
b11 "
b100000000 '
b1 )
b10110000 /
1.
#70
0.
#80
b10 +
b100010000 !
b11001001111001000110000 &
b1 %
b10 $
b110 "
b100010000 '
b100000000 /
1.
#90
0.
#100
b1100100 &
b1100100 +
b101100000 !
b10 %
b1111 $
b11 "
b101100000 '
b10 )
b100010000 /
1.
#110
0.
#120
b1100010 +
b1100100 )
b10 (
b101110000 !
b1010000001110101 &
b1 $
b1 #
b110 "
b101110000 '
b101100000 /
1.
#130
0.
#140
b10100000 &
b1100000 +
b10100000 !
1-
b1111 %
b1111 $
b101 #
b111 "
b110111000 '
b1100010 )
b101110000 /
1.
#150
0.
#160
b1 )
b11 +
b0 %
b1 $
b10110000 !
b1111100100011000000010000 &
b0 #
b110 "
b10110000 '
b10100000 /
1.
#170
0.
#180
b1 &
b1 +
b100000000 !
b10 %
b1111 $
b11 "
b100000000 '
b11 )
b10110000 /
1.
#190
0.
#200
b11 +
b10 )
b1 (
b100010000 !
b11001001111001000110000 &
b1 %
b10 $
b110 "
b100010000 '
b100000000 /
1.
#210
0.
#220
b1100100 &
b1100100 +
b101100000 !
b10 %
b1111 $
b11 "
b101100000 '
b11 )
b100010000 /
1.
#230
0.
#240
b1100001 +
b1100100 )
b11 (
b101110000 !
b1010000001110101 &
b1 $
b1 #
b110 "
b101110000 '
b101100000 /
1.
#250
0.
#260
b10100000 &
b1011110 +
b10100000 !
b1111 %
b1111 $
b101 #
b111 "
b110111000 '
b1100001 )
b101110000 /
1.
#270
0.
#280
b11 )
b110 +
b0 %
b1 $
b10110000 !
b1111100100011000000010000 &
b0 #
b110 "
b10110000 '
b10100000 /
1.
#290
0.
#300
b1 &
b1 +
b100000000 !
b10 %
b1111 $
b11 "
b100000000 '
b110 )
b10110000 /
1.
#310
0.
#320
b100 +
b11 )
b1 (
b100010000 !
b11001001111001000110000 &
b1 %
b10 $
b110 "
b100010000 '
b100000000 /
1.
#330
0.
#340
b1100100 &
b1100100 +
b101100000 !
b10 %
b1111 $
b11 "
b101100000 '
b100 )
b100010000 /
1.
#350
0.
#360
b1100000 +
b1100100 )
b100 (
b101110000 !
b1010000001110101 &
b1 $
b1 #
b110 "
b101110000 '
b101100000 /
1.
#370
0.
#380
b10100000 &
b1011100 +
b10100000 !
b1111 %
b1111 $
b101 #
b111 "
b110111000 '
b1100000 )
b101110000 /
1.
#390
0.
#400
b110 )
b1010 +
b0 %
b1 $
b10110000 !
b1111100100011000000010000 &
b0 #
b110 "
b10110000 '
b10100000 /
1.
#410
0.
#420
b1 &
b1 +
b100000000 !
b10 %
b1111 $
b11 "
b100000000 '
b1010 )
b10110000 /
1.
#430
0.
#440
b101 +
b100 )
b1 (
b100010000 !
b11001001111001000110000 &
b1 %
b10 $
b110 "
b100010000 '
b100000000 /
1.
#450
0.
#460
b1100100 &
b1100100 +
b101100000 !
b10 %
b1111 $
b11 "
b101100000 '
b101 )
b100010000 /
1.
#470
0.
#480
b1011111 +
b1100100 )
b101 (
b101110000 !
b1010000001110101 &
b1 $
b1 #
b110 "
b101110000 '
b101100000 /
1.
#490
0.
#500
b10100000 &
b1011010 +
b10100000 !
b1111 %
b1111 $
b101 #
b111 "
b110111000 '
b1011111 )
b101110000 /
1.
#510
0.
#520
b1010 )
b1111 +
b0 %
b1 $
b10110000 !
b1111100100011000000010000 &
b0 #
b110 "
b10110000 '
b10100000 /
1.
#530
0.
#540
b1 &
b1 +
b100000000 !
b10 %
b1111 $
b11 "
b100000000 '
b1111 )
b10110000 /
1.
#550
0.
#560
b110 +
b101 )
b1 (
b100010000 !
b11001001111001000110000 &
b1 %
b10 $
b110 "
b100010000 '
b100000000 /
1.
#570
0.
#580
b1100100 &
b1100100 +
b101100000 !
b10 %
b1111 $
b11 "
b101100000 '
b110 )
b100010000 /
1.
#590
0.
#600
b1011110 +
b1100100 )
b110 (
b101110000 !
b1010000001110101 &
b1 $
b1 #
b110 "
b101110000 '
b101100000 /
1.
#610
0.
#620
b10100000 &
b1011000 +
b10100000 !
b1111 %
b1111 $
b101 #
b111 "
b110111000 '
b1011110 )
b101110000 /
1.
#630
0.
#640
b1111 )
b10101 +
b0 %
b1 $
b10110000 !
b1111100100011000000010000 &
b0 #
b110 "
b10110000 '
b10100000 /
1.
#650
0.
#660
b1 &
b1 +
b100000000 !
b10 %
b1111 $
b11 "
b100000000 '
b10101 )
b10110000 /
1.
#670
0.
#680
b111 +
b110 )
b1 (
b100010000 !
b11001001111001000110000 &
b1 %
b10 $
b110 "
b100010000 '
b100000000 /
1.
#690
0.
#700
b1100100 &
b1100100 +
b101100000 !
b10 %
b1111 $
b11 "
b101100000 '
b111 )
b100010000 /
1.
#710
0.
#720
b1011101 +
b1100100 )
b111 (
b101110000 !
b1010000001110101 &
b1 $
b1 #
b110 "
b101110000 '
b101100000 /
1.
#730
0.
#740
b10100000 &
b1010110 +
b10100000 !
b1111 %
b1111 $
b101 #
b111 "
b110111000 '
b1011101 )
b101110000 /
1.
#750
0.
#760
b10101 )
b11100 +
b0 %
b1 $
b10110000 !
b1111100100011000000010000 &
b0 #
b110 "
b10110000 '
b10100000 /
1.
#770
0.
#780
b1 &
b1 +
b100000000 !
b10 %
b1111 $
b11 "
b100000000 '
b11100 )
b10110000 /
1.
#790
0.
#800
b1000 +
b111 )
b1 (
b100010000 !
b11001001111001000110000 &
b1 %
b10 $
b110 "
b100010000 '
b100000000 /
1.
#810
0.
#820
b1100100 &
b1100100 +
b101100000 !
b10 %
b1111 $
b11 "
b101100000 '
b1000 )
b100010000 /
1.
#830
0.
#840
b1011100 +
b1100100 )
b1000 (
b101110000 !
b1010000001110101 &
b1 $
b1 #
b110 "
b101110000 '
b101100000 /
1.
#850
0.
#860
b10100000 &
b1010100 +
b10100000 !
b1111 %
b1111 $
b101 #
b111 "
b110111000 '
b1011100 )
b101110000 /
1.
#870
0.
#880
b11100 )
b100100 +
b0 %
b1 $
b10110000 !
b1111100100011000000010000 &
b0 #
b110 "
b10110000 '
b10100000 /
1.
#890
0.
#900
b1 &
b1 +
b100000000 !
b10 %
b1111 $
b11 "
b100000000 '
b100100 )
b10110000 /
1.
#910
0.
#920
b1001 +
b1000 )
b1 (
b100010000 !
b11001001111001000110000 &
b1 %
b10 $
b110 "
b100010000 '
b100000000 /
1.
#930
0.
#940
b1100100 &
b1100100 +
b101100000 !
b10 %
b1111 $
b11 "
b101100000 '
b1001 )
b100010000 /
1.
#950
0.
#960
b1011011 +
b1100100 )
b1001 (
b101110000 !
b1010000001110101 &
b1 $
b1 #
b110 "
b101110000 '
b101100000 /
1.
#970
0.
#980
b10100000 &
b1010010 +
b10100000 !
b1111 %
b1111 $
b101 #
b111 "
b110111000 '
b1011011 )
b101110000 /
1.
#990
0.
#1000
b100100 )
b101101 +
b0 %
b1 $
b10110000 !
b1111100100011000000010000 &
b0 #
b110 "
b10110000 '
b10100000 /
1.
#1010
0.
#1020
b1 &
b1 +
b100000000 !
b10 %
b1111 $
b11 "
b100000000 '
b101101 )
b10110000 /
1.
#1030
0.
#1040
b1010 +
b1001 )
b1 (
b100010000 !
b11001001111001000110000 &
b1 %
b10 $
b110 "
b100010000 '
b100000000 /
1.
#1050
0.
#1060
b1100100 &
b1100100 +
b101100000 !
b10 %
b1111 $
b11 "
b101100000 '
b1010 )
b100010000 /
1.
#1070
0.
#1080
b1011010 +
b1100100 )
b1010 (
b101110000 !
b1010000001110101 &
b1 $
b1 #
b110 "
b101110000 '
b101100000 /
1.
#1090
0.
#1100
b10100000 &
b1010000 +
b10100000 !
b1111 %
b1111 $
b101 #
b111 "
b110111000 '
b1011010 )
b101110000 /
1.
#1110
0.
#1120
b101101 )
b110111 +
b0 %
b1 $
b10110000 !
b1111100100011000000010000 &
b0 #
b110 "
b10110000 '
b10100000 /
1.
#1130
0.
#1140
b1 &
b1 +
b100000000 !
b10 %
b1111 $
b11 "
b100000000 '
b110111 )
b10110000 /
1.
#1150
0.
#1160
b1011 +
b1010 )
b1 (
b100010000 !
b11001001111001000110000 &
b1 %
b10 $
b110 "
b100010000 '
b100000000 /
1.
#1170
0.
#1180
b1100100 &
b1100100 +
b101100000 !
b10 %
b1111 $
b11 "
b101100000 '
b1011 )
b100010000 /
1.
#1190
0.
#1200
b1011001 +
b1100100 )
b1011 (
b101110000 !
b1010000001110101 &
b1 $
b1 #
b110 "
b101110000 '
b101100000 /
1.
#1210
0.
#1220
b10100000 &
b1001110 +
b10100000 !
b1111 %
b1111 $
b101 #
b111 "
b110111000 '
b1011001 )
b101110000 /
1.
#1230
0.
#1240
b110111 )
b1000010 +
b0 %
b1 $
b10110000 !
b1111100100011000000010000 &
b0 #
b110 "
b10110000 '
b10100000 /
1.
#1250
0.
#1260
b1 &
b1 +
b100000000 !
b10 %
b1111 $
b11 "
b100000000 '
b1000010 )
b10110000 /
1.
#1270
0.
#1280
b1100 +
b1011 )
b1 (
b100010000 !
b11001001111001000110000 &
b1 %
b10 $
b110 "
b100010000 '
b100000000 /
1.
#1290
0.
#1300
b1100100 &
b1100100 +
b101100000 !
b10 %
b1111 $
b11 "
b101100000 '
b1100 )
b100010000 /
1.
#1310
0.
#1320
b1011000 +
b1100100 )
b1100 (
b101110000 !
b1010000001110101 &
b1 $
b1 #
b110 "
b101110000 '
b101100000 /
1.
#1330
0.
#1340
b10100000 &
b1001100 +
b10100000 !
b1111 %
b1111 $
b101 #
b111 "
b110111000 '
b1011000 )
b101110000 /
1.
#1350
0.
#1360
b1000010 )
b1001110 +
b0 %
b1 $
b10110000 !
b1111100100011000000010000 &
b0 #
b110 "
b10110000 '
b10100000 /
1.
#1370
0.
#1380
b1 &
b1 +
b100000000 !
b10 %
b1111 $
b11 "
b100000000 '
b1001110 )
b10110000 /
1.
#1390
0.
#1400
b1101 +
b1100 )
b1 (
b100010000 !
b11001001111001000110000 &
b1 %
b10 $
b110 "
b100010000 '
b100000000 /
1.
#1410
0.
#1420
b1100100 &
b1100100 +
b101100000 !
b10 %
b1111 $
b11 "
b101100000 '
b1101 )
b100010000 /
1.
#1430
0.
#1440
b1010111 +
b1100100 )
b1101 (
b101110000 !
b1010000001110101 &
b1 $
b1 #
b110 "
b101110000 '
b101100000 /
1.
#1450
0.
#1460
b10100000 &
b1001010 +
b10100000 !
b1111 %
b1111 $
b101 #
b111 "
b110111000 '
b1010111 )
b101110000 /
1.
#1470
0.
#1480
b1001110 )
b1011011 +
b0 %
b1 $
b10110000 !
b1111100100011000000010000 &
b0 #
b110 "
b10110000 '
b10100000 /
1.
#1490
0.
#1500
b1 &
b1 +
b100000000 !
b10 %
b1111 $
b11 "
b100000000 '
b1011011 )
b10110000 /
1.
#1510
0.
#1520
b1110 +
b1101 )
b1 (
b100010000 !
b11001001111001000110000 &
b1 %
b10 $
b110 "
b100010000 '
b100000000 /
1.
#1530
0.
#1540
b1100100 &
b1100100 +
b101100000 !
b10 %
b1111 $
b11 "
b101100000 '
b1110 )
b100010000 /
1.
#1550
0.
#1560
b1010110 +
b1100100 )
b1110 (
b101110000 !
b1010000001110101 &
b1 $
b1 #
b110 "
b101110000 '
b101100000 /
1.
#1570
0.
#1580
b10100000 &
b1001000 +
b10100000 !
b1111 %
b1111 $
b101 #
b111 "
b110111000 '
b1010110 )
b101110000 /
1.
#1590
0.
#1600
b1011011 )
b1101001 +
b0 %
b1 $
b10110000 !
b1111100100011000000010000 &
b0 #
b110 "
b10110000 '
b10100000 /
1.
#1610
0.
#1620
b1 &
b1 +
b100000000 !
b10 %
b1111 $
b11 "
b100000000 '
b1101001 )
b10110000 /
1.
#1630
0.
#1640
b1111 +
b1110 )
b1 (
b100010000 !
b11001001111001000110000 &
b1 %
b10 $
b110 "
b100010000 '
b100000000 /
1.
#1650
0.
#1660
b1100100 &
b1100100 +
b101100000 !
b10 %
b1111 $
b11 "
b101100000 '
b1111 )
b100010000 /
1.
#1670
0.
#1680
b1010101 +
b1100100 )
b1111 (
b101110000 !
b1010000001110101 &
b1 $
b1 #
b110 "
b101110000 '
b101100000 /
1.
#1690
0.
#1700
b10100000 &
b1000110 +
b10100000 !
b1111 %
b1111 $
b101 #
b111 "
b110111000 '
b1010101 )
b101110000 /
1.
#1710
0.
#1720
b1101001 )
b1111000 +
b0 %
b1 $
b10110000 !
b1111100100011000000010000 &
b0 #
b110 "
b10110000 '
b10100000 /
1.
#1730
0.
#1740
b1 &
b1 +
b100000000 !
b10 %
b1111 $
b11 "
b100000000 '
b1111000 )
b10110000 /
1.
#1750
0.
#1760
b10000 +
b1111 )
b1 (
b100010000 !
b11001001111001000110000 &
b1 %
b10 $
b110 "
b100010000 '
b100000000 /
1.
#1770
0.
#1780
b1100100 &
b1100100 +
b101100000 !
b10 %
b1111 $
b11 "
b101100000 '
b10000 )
b100010000 /
1.
#1790
0.
#1800
b1010100 +
b1100100 )
b10000 (
b101110000 !
b1010000001110101 &
b1 $
b1 #
b110 "
b101110000 '
b101100000 /
1.
#1810
0.
#1820
b10100000 &
b1000100 +
b10100000 !
b1111 %
b1111 $
b101 #
b111 "
b110111000 '
b1010100 )
b101110000 /
1.
#1830
0.
#1840
b1111000 )
b10001000 +
b0 %
b1 $
b10110000 !
b1111100100011000000010000 &
b0 #
b110 "
b10110000 '
b10100000 /
1.
#1850
0.
#1860
b1 &
b1 +
b100000000 !
b10 %
b1111 $
b11 "
b100000000 '
b10001000 )
b10110000 /
1.
#1870
0.
#1880
b10001 +
b10000 )
b1 (
b100010000 !
b11001001111001000110000 &
b1 %
b10 $
b110 "
b100010000 '
b100000000 /
1.
#1890
0.
#1900
b1100100 &
b1100100 +
b101100000 !
b10 %
b1111 $
b11 "
b101100000 '
b10001 )
b100010000 /
1.
#1910
0.
#1920
b1010011 +
b1100100 )
b10001 (
b101110000 !
b1010000001110101 &
b1 $
b1 #
b110 "
b101110000 '
b101100000 /
1.
#1930
0.
#1940
b10100000 &
b1000010 +
b10100000 !
b1111 %
b1111 $
b101 #
b111 "
b110111000 '
b1010011 )
b101110000 /
1.
#1950
0.
#1960
b10001000 )
b10011001 +
b0 %
b1 $
b10110000 !
b1111100100011000000010000 &
b0 #
b110 "
b10110000 '
b10100000 /
1.
#1970
0.
#1980
b1 &
b1 +
b100000000 !
b10 %
b1111 $
b11 "
b100000000 '
b10011001 )
b10110000 /
1.
#1990
0.
#2000
b10010 +
b10001 )
b1 (
b100010000 !
b11001001111001000110000 &
b1 %
b10 $
b110 "
b100010000 '
b100000000 /
1.
#2010
0.
#2020
b1100100 &
b1100100 +
b101100000 !
b10 %
b1111 $
b11 "
b101100000 '
b10010 )
b100010000 /
1.
#2030
0.
#2040
b1010010 +
b1100100 )
b10010 (
b101110000 !
b1010000001110101 &
b1 $
b1 #
b110 "
b101110000 '
b101100000 /
1.
#2050
0.
#2060
b10100000 &
b1000000 +
b10100000 !
b1111 %
b1111 $
b101 #
b111 "
b110111000 '
b1010010 )
b101110000 /
1.
#2070
0.
#2080
b10011001 )
b10101011 +
b0 %
b1 $
b10110000 !
b1111100100011000000010000 &
b0 #
b110 "
b10110000 '
b10100000 /
1.
#2090
0.
#2100
b1 &
b1 +
b100000000 !
b10 %
b1111 $
b11 "
b100000000 '
b10101011 )
b10110000 /
1.
#2110
0.
#2120
b10011 +
b10010 )
b1 (
b100010000 !
b11001001111001000110000 &
b1 %
b10 $
b110 "
b100010000 '
b100000000 /
1.
#2130
0.
#2140
b1100100 &
b1100100 +
b101100000 !
b10 %
b1111 $
b11 "
b101100000 '
b10011 )
b100010000 /
1.
#2150
0.
#2160
b1010001 +
b1100100 )
b10011 (
b101110000 !
b1010000001110101 &
b1 $
b1 #
b110 "
b101110000 '
b101100000 /
1.
#2170
0.
#2180
b10100000 &
b111110 +
b10100000 !
b1111 %
b1111 $
b101 #
b111 "
b110111000 '
b1010001 )
b101110000 /
1.
#2190
0.
#2200
b10101011 )
b10111110 +
b0 %
b1 $
b10110000 !
b1111100100011000000010000 &
b0 #
b110 "
b10110000 '
b10100000 /
1.
#2210
0.
#2220
b1 &
b1 +
b100000000 !
b10 %
b1111 $
b11 "
b100000000 '
b10111110 )
b10110000 /
1.
#2230
0.
#2240
b10100 +
b10011 )
b1 (
b100010000 !
b11001001111001000110000 &
b1 %
b10 $
b110 "
b100010000 '
b100000000 /
1.
#2250
0.
#2260
b1100100 &
b1100100 +
b101100000 !
b10 %
b1111 $
b11 "
b101100000 '
b10100 )
b100010000 /
1.
#2270
0.
#2280
b1010000 +
b1100100 )
b10100 (
b101110000 !
b1010000001110101 &
b1 $
b1 #
b110 "
b101110000 '
b101100000 /
1.
#2290
0.
#2300
b10100000 &
b111100 +
b10100000 !
b1111 %
b1111 $
b101 #
b111 "
b110111000 '
b1010000 )
b101110000 /
1.
#2310
0.
#2320
b10111110 )
b11010010 +
b0 %
b1 $
b10110000 !
b1111100100011000000010000 &
b0 #
b110 "
b10110000 '
b10100000 /
1.
#2330
0.
#2340
b1 &
b1 +
b100000000 !
b10 %
b1111 $
b11 "
b100000000 '
b11010010 )
b10110000 /
1.
#2350
0.
#2360
b10101 +
b10100 )
b1 (
b100010000 !
b11001001111001000110000 &
b1 %
b10 $
b110 "
b100010000 '
b100000000 /
1.
#2370
0.
#2380
b1100100 &
b1100100 +
b101100000 !
b10 %
b1111 $
b11 "
b101100000 '
b10101 )
b100010000 /
1.
#2390
0.
#2400
b1001111 +
b1100100 )
b10101 (
b101110000 !
b1010000001110101 &
b1 $
b1 #
b110 "
b101110000 '
b101100000 /
1.
#2410
0.
#2420
b10100000 &
b111010 +
b10100000 !
b1111 %
b1111 $
b101 #
b111 "
b110111000 '
b1001111 )
b101110000 /
1.
#2430
0.
#2440
b11010010 )
b11100111 +
b0 %
b1 $
b10110000 !
b1111100100011000000010000 &
b0 #
b110 "
b10110000 '
b10100000 /
1.
#2450
0.
#2460
b1 &
b1 +
b100000000 !
b10 %
b1111 $
b11 "
b100000000 '
b11100111 )
b10110000 /
1.
#2470
0.
#2480
b10110 +
b10101 )
b1 (
b100010000 !
b11001001111001000110000 &
b1 %
b10 $
b110 "
b100010000 '
b100000000 /
1.
#2490
0.
#2500
b1100100 &
b1100100 +
b101100000 !
b10 %
b1111 $
b11 "
b101100000 '
b10110 )
b100010000 /
1.
#2510
0.
#2520
b1001110 +
b1100100 )
b10110 (
b101110000 !
b1010000001110101 &
b1 $
b1 #
b110 "
b101110000 '
b101100000 /
1.
#2530
0.
#2540
b10100000 &
b111000 +
b10100000 !
b1111 %
b1111 $
b101 #
b111 "
b110111000 '
b1001110 )
b101110000 /
1.
#2550
0.
#2560
b11100111 )
b11111101 +
b0 %
b1 $
b10110000 !
b1111100100011000000010000 &
b0 #
b110 "
b10110000 '
b10100000 /
1.
#2570
0.
#2580
b1 &
b1 +
b100000000 !
b10 %
b1111 $
b11 "
b100000000 '
b11111101 )
b10110000 /
1.
#2590
0.
#2600
b10111 +
b10110 )
b1 (
b100010000 !
b11001001111001000110000 &
b1 %
b10 $
b110 "
b100010000 '
b100000000 /
1.
#2610
0.
#2620
b1100100 &
b1100100 +
b101100000 !
b10 %
b1111 $
b11 "
b101100000 '
b10111 )
b100010000 /
1.
#2630
0.
#2640
b1001101 +
b1100100 )
b10111 (
b101110000 !
b1010000001110101 &
b1 $
b1 #
b110 "
b101110000 '
b101100000 /
1.
#2650
0.
#2660
b10100000 &
b110110 +
b10100000 !
b1111 %
b1111 $
b101 #
b111 "
b110111000 '
b1001101 )
b101110000 /
1.
#2670
0.
#2680
b11111101 )
b100010100 +
b0 %
b1 $
b10110000 !
b1111100100011000000010000 &
b0 #
b110 "
b10110000 '
b10100000 /
1.
#2690
0.
#2700
b1 &
b1 +
b100000000 !
b10 %
b1111 $
b11 "
b100000000 '
b100010100 )
b10110000 /
1.
#2710
0.
#2720
b11000 +
b10111 )
b1 (
b100010000 !
b11001001111001000110000 &
b1 %
b10 $
b110 "
b100010000 '
b100000000 /
1.
#2730
0.
#2740
b1100100 &
b1100100 +
b101100000 !
b10 %
b1111 $
b11 "
b101100000 '
b11000 )
b100010000 /
1.
#2750
0.
#2760
b1001100 +
b1100100 )
b11000 (
b101110000 !
b1010000001110101 &
b1 $
b1 #
b110 "
b101110000 '
b101100000 /
1.
#2770
0.
#2780
b10100000 &
b110100 +
b10100000 !
b1111 %
b1111 $
b101 #
b111 "
b110111000 '
b1001100 )
b101110000 /
1.
#2790
0.
#2800
b100010100 )
b100101100 +
b0 %
b1 $
b10110000 !
b1111100100011000000010000 &
b0 #
b110 "
b10110000 '
b10100000 /
1.
#2810
0.
#2820
b1 &
b1 +
b100000000 !
b10 %
b1111 $
b11 "
b100000000 '
b100101100 )
b10110000 /
1.
#2830
0.
#2840
b11001 +
b11000 )
b1 (
b100010000 !
b11001001111001000110000 &
b1 %
b10 $
b110 "
b100010000 '
b100000000 /
1.
#2850
0.
#2860
b1100100 &
b1100100 +
b101100000 !
b10 %
b1111 $
b11 "
b101100000 '
b11001 )
b100010000 /
1.
#2870
0.
#2880
b1001011 +
b1100100 )
b11001 (
b101110000 !
b1010000001110101 &
b1 $
b1 #
b110 "
b101110000 '
b101100000 /
1.
#2890
0.
#2900
b10100000 &
b110010 +
b10100000 !
b1111 %
b1111 $
b101 #
b111 "
b110111000 '
b1001011 )
b101110000 /
1.
#2910
0.
#2920
b100101100 )
b101000101 +
b0 %
b1 $
b10110000 !
b1111100100011000000010000 &
b0 #
b110 "
b10110000 '
b10100000 /
1.
#2930
0.
#2940
b1 &
b1 +
b100000000 !
b10 %
b1111 $
b11 "
b100000000 '
b101000101 )
b10110000 /
1.
#2950
0.
#2960
b11010 +
b11001 )
b1 (
b100010000 !
b11001001111001000110000 &
b1 %
b10 $
b110 "
b100010000 '
b100000000 /
1.
#2970
0.
#2980
b1100100 &
b1100100 +
b101100000 !
b10 %
b1111 $
b11 "
b101100000 '
b11010 )
b100010000 /
1.
#2990
0.
#3000
b1001010 +
b1100100 )
b11010 (
b101110000 !
b1010000001110101 &
b1 $
b1 #
b110 "
b101110000 '
b101100000 /
1.
#3010
0.
#3020
b10100000 &
b110000 +
b10100000 !
b1111 %
b1111 $
b101 #
b111 "
b110111000 '
b1001010 )
b101110000 /
1.
#3030
0.
#3040
b101000101 )
b101011111 +
b0 %
b1 $
b10110000 !
b1111100100011000000010000 &
b0 #
b110 "
b10110000 '
b10100000 /
1.
#3050
0.
#3060
b1 &
b1 +
b100000000 !
b10 %
b1111 $
b11 "
b100000000 '
b101011111 )
b10110000 /
1.
#3070
0.
#3080
b11011 +
b11010 )
b1 (
b100010000 !
b11001001111001000110000 &
b1 %
b10 $
b110 "
b100010000 '
b100000000 /
1.
#3090
0.
#3100
b1100100 &
b1100100 +
b101100000 !
b10 %
b1111 $
b11 "
b101100000 '
b11011 )
b100010000 /
1.
#3110
0.
#3120
b1001001 +
b1100100 )
b11011 (
b101110000 !
b1010000001110101 &
b1 $
b1 #
b110 "
b101110000 '
b101100000 /
1.
#3130
0.
#3140
b10100000 &
b101110 +
b10100000 !
b1111 %
b1111 $
b101 #
b111 "
b110111000 '
b1001001 )
b101110000 /
1.
#3150
0.
#3160
b101011111 )
b101111010 +
b0 %
b1 $
b10110000 !
b1111100100011000000010000 &
b0 #
b110 "
b10110000 '
b10100000 /
1.
#3170
0.
#3180
b1 &
b1 +
b100000000 !
b10 %
b1111 $
b11 "
b100000000 '
b101111010 )
b10110000 /
1.
#3190
0.
#3200
b11100 +
b11011 )
b1 (
b100010000 !
b11001001111001000110000 &
b1 %
b10 $
b110 "
b100010000 '
b100000000 /
1.
#3210
0.
#3220
b1100100 &
b1100100 +
b101100000 !
b10 %
b1111 $
b11 "
b101100000 '
b11100 )
b100010000 /
1.
#3230
0.
#3240
b1001000 +
b1100100 )
b11100 (
b101110000 !
b1010000001110101 &
b1 $
b1 #
b110 "
b101110000 '
b101100000 /
1.
#3250
0.
#3260
b10100000 &
b101100 +
b10100000 !
b1111 %
b1111 $
b101 #
b111 "
b110111000 '
b1001000 )
b101110000 /
1.
#3270
0.
#3280
b101111010 )
b110010110 +
b0 %
b1 $
b10110000 !
b1111100100011000000010000 &
b0 #
b110 "
b10110000 '
b10100000 /
1.
#3290
0.
#3300
b1 &
b1 +
b100000000 !
b10 %
b1111 $
b11 "
b100000000 '
b110010110 )
b10110000 /
1.
#3310
0.
#3320
b11101 +
b11100 )
b1 (
b100010000 !
b11001001111001000110000 &
b1 %
b10 $
b110 "
b100010000 '
b100000000 /
1.
#3330
0.
#3340
b1100100 &
b1100100 +
b101100000 !
b10 %
b1111 $
b11 "
b101100000 '
b11101 )
b100010000 /
1.
#3350
0.
#3360
b1000111 +
b1100100 )
b11101 (
b101110000 !
b1010000001110101 &
b1 $
b1 #
b110 "
b101110000 '
b101100000 /
1.
#3370
0.
#3380
b10100000 &
b101010 +
b10100000 !
b1111 %
b1111 $
b101 #
b111 "
b110111000 '
b1000111 )
b101110000 /
1.
#3390
0.
#3400
b110010110 )
b110110011 +
b0 %
b1 $
b10110000 !
b1111100100011000000010000 &
b0 #
b110 "
b10110000 '
b10100000 /
1.
#3410
0.
#3420
b1 &
b1 +
b100000000 !
b10 %
b1111 $
b11 "
b100000000 '
b110110011 )
b10110000 /
1.
#3430
0.
#3440
b11110 +
b11101 )
b1 (
b100010000 !
b11001001111001000110000 &
b1 %
b10 $
b110 "
b100010000 '
b100000000 /
1.
#3450
0.
#3460
b1100100 &
b1100100 +
b101100000 !
b10 %
b1111 $
b11 "
b101100000 '
b11110 )
b100010000 /
1.
#3470
0.
#3480
b1000110 +
b1100100 )
b11110 (
b101110000 !
b1010000001110101 &
b1 $
b1 #
b110 "
b101110000 '
b101100000 /
1.
#3490
0.
#3500
b10100000 &
b101000 +
b10100000 !
b1111 %
b1111 $
b101 #
b111 "
b110111000 '
b1000110 )
b101110000 /
1.
#3510
0.
#3520
b110110011 )
b111010001 +
b0 %
b1 $
b10110000 !
b1111100100011000000010000 &
b0 #
b110 "
b10110000 '
b10100000 /
1.
#3530
0.
#3540
b1 &
b1 +
b100000000 !
b10 %
b1111 $
b11 "
b100000000 '
b111010001 )
b10110000 /
1.
#3550
0.
#3560
b11111 +
b11110 )
b1 (
b100010000 !
b11001001111001000110000 &
b1 %
b10 $
b110 "
b100010000 '
b100000000 /
1.
#3570
0.
#3580
b1100100 &
b1100100 +
b101100000 !
b10 %
b1111 $
b11 "
b101100000 '
b11111 )
b100010000 /
1.
#3590
0.
#3600
b1000101 +
b1100100 )
b11111 (
b101110000 !
b1010000001110101 &
b1 $
b1 #
b110 "
b101110000 '
b101100000 /
1.
#3610
0.
#3620
b10100000 &
b100110 +
b10100000 !
b1111 %
b1111 $
b101 #
b111 "
b110111000 '
b1000101 )
b101110000 /
1.
#3630
0.
#3640
b111010001 )
b111110000 +
b0 %
b1 $
b10110000 !
b1111100100011000000010000 &
b0 #
b110 "
b10110000 '
b10100000 /
1.
#3650
0.
#3660
b1 &
b1 +
b100000000 !
b10 %
b1111 $
b11 "
b100000000 '
b111110000 )
b10110000 /
1.
#3670
0.
#3680
b100000 +
b11111 )
b1 (
b100010000 !
b11001001111001000110000 &
b1 %
b10 $
b110 "
b100010000 '
b100000000 /
1.
#3690
0.
#3700
b1100100 &
b1100100 +
b101100000 !
b10 %
b1111 $
b11 "
b101100000 '
b100000 )
b100010000 /
1.
#3710
0.
#3720
b1000100 +
b1100100 )
b100000 (
b101110000 !
b1010000001110101 &
b1 $
b1 #
b110 "
b101110000 '
b101100000 /
1.
#3730
0.
#3740
b10100000 &
b100100 +
b10100000 !
b1111 %
b1111 $
b101 #
b111 "
b110111000 '
b1000100 )
b101110000 /
1.
#3750
0.
#3760
b111110000 )
b1000010000 +
b0 %
b1 $
b10110000 !
b1111100100011000000010000 &
b0 #
b110 "
b10110000 '
b10100000 /
1.
#3770
0.
#3780
b1 &
b1 +
b100000000 !
b10 %
b1111 $
b11 "
b100000000 '
b1000010000 )
b10110000 /
1.
#3790
0.
